Car gate/waves.vcd
$date
  Tue Nov 18 20:04:50 2025
$end
$version
  GHDL v0
$end
$timescale
  1 fs
$end
$scope module standard $end
$upscope $end
$scope module std_logic_1164 $end
$upscope $end
$scope module numeric_std $end
$upscope $end
$scope module tb $end
$var reg 1 ! clock $end
$var reg 1 " reset $end
$var reg 1 # front_sensor $end
$var reg 1 $ back_sensor $end
$var reg 2 % password_1[1:0] $end
$var reg 2 & password_2[1:0] $end
$var reg 1 ' pswd_in $end
$var reg 1 ( green_led $end
$var reg 1 ) red_led $end
$var reg 7 * hex_1[6:0] $end
$var reg 7 + hex_2[6:0] $end
$var reg 7 , car_count[6:0] $end
$scope module dut $end
$var reg 1 - clk $end
$var reg 1 . reset_n $end
$var reg 1 / front_sensor $end
$var reg 1 0 back_sensor $end
$var reg 2 1 password_1[1:0] $end
$var reg 2 2 password_2[1:0] $end
$var reg 1 3 pswd_in $end
$var reg 1 4 green_led $end
$var reg 1 5 red_led $end
$var reg 7 6 hex_1[6:0] $end
$var reg 7 7 hex_2[6:0] $end
$var reg 7 8 car_count[6:0] $end
$comment current_state is not handled $end
$var reg 1 9 scaled_clock $end
$var integer 32 : clock_counter $end
$var reg 5 ; counter[4:0] $end
$var reg 7 < internal_car_count[6:0] $end
$upscope $end
$upscope $end
$enddefinitions $end
#0
1!
1"
0#
0$
b00 %
b00 &
0'
U(
U)
bUUUUUUU *
bUUUUUUU +
bUUUUUUU ,
1-
1.
0/
00
b00 1
b00 2
03
U4
U5
bUUUUUUU 6
bUUUUUUU 7
bUUUUUUU 8
09
b0 :
b00000 ;
b0000000 <
#10000000
0!
0-
#20000000
1!
0"
0(
0)
b1111111 *
b1111111 +
b0000000 ,
1-
0.
04
05
b1111111 6
b1111111 7
b0000000 8
#30000000
0!
0-
#40000000
1!
1"
1-
1.
#50000000
0!
0-
#60000000
1!
1#
1-
1/
#70000000
0!
0-
#80000000
1!
1)
b0000110 *
b0101011 +
1-
15
b0000110 6
b0101011 7
b00001 ;
#90000000
0!
0-
#100000000
1!
b01 %
b10 &
1'
1-
b01 1
b10 2
13
15
b0000110 6
b0101011 7
b00010 ;
#110000000
0!
0-
#120000000
1!
1-
15
b0000110 6
b0101011 7
b00011 ;
#130000000
0!
0-
#140000000
1!
1-
15
b0000110 6
b0101011 7
b00100 ;
#150000000
0!
0-
#160000000
1!
1-
15
b0000110 6
b0101011 7
b00101 ;
#170000000
0!
0-
#180000000
1!
1-
15
b0000110 6
b0101011 7
b00110 ;
#190000000
0!
0-
#200000000
1!
1-
15
b0000110 6
b0101011 7
b00111 ;
#210000000
0!
0-
#220000000
1!
1-
15
b0000110 6
b0101011 7
b01000 ;
#230000000
0!
0-
#240000000
1!
1-
15
b0000110 6
b0101011 7
b01001 ;
#250000000
0!
0-
#260000000
1!
1-
15
b0000110 6
b0101011 7
b01010 ;
#270000000
0!
0-
#280000000
1!
1(
0)
b0000010 *
b1000000 +
1-
14
05
b0000010 6
b1000000 7
b00000 ;
#290000000
0!
0(
0-
04
#300000000
1!
0#
b00 %
b00 &
0'
1(
1-
0/
b00 1
b00 2
03
14
b0000010 6
b1000000 7
#310000000
0!
0(
0-
04
#320000000
1!
1(
1-
14
b0000010 6
b1000000 7
#330000000
0!
0(
0-
04
#340000000
1!
1$
1(
1-
10
14
b0000010 6
b1000000 7
b0000001 <
#350000000
0!
0-
#360000000
1!
0(
b1111111 *
b1111111 +
b0000001 ,
1-
04
b1111111 6
b1111111 7
b0000001 8
#370000000
0!
0-
#380000000
1!
0$
1-
00
#390000000
0!
0-
#400000000
1!
1-
#410000000
0!
0-
#420000000
1!
1-
#430000000
0!
0-
#440000000
1!
1-
#450000000
0!
0-
#460000000
1!
1-
#470000000
0!
0-
#480000000
1!
1-
#490000000
0!
0-
#500000000
1!
1-
#510000000
0!
0-
#520000000
1!
1-
#530000000
0!
0-
#540000000
1!
1-
#550000000
0!
0-
#560000000
1!
1-
#570000000
0!
0-
#580000000
1!
1-
#590000000
0!
0-
#600000000
1!
1-
#610000000
0!
0-
#620000000
1!
1-
#630000000
0!
0-
#640000000
1!
1-
#650000000
0!
0-
#660000000
1!
1-
#670000000
0!
0-
#680000000
1!
1-
#690000000
0!
0-
#700000000
1!
1-
#710000000
0!
0-
#720000000
1!
1-
#730000000
0!
0-
#740000000
1!
1-
#750000000
0!
0-
#760000000
1!
1-
#770000000
0!
0-
#780000000
1!
1#
1-
1/
#790000000
0!
0-
#800000000
1!
1)
b0000110 *
b0101011 +
1-
15
b0000110 6
b0101011 7
b00001 ;
#810000000
0!
0-
#820000000
1!
b11 %
b11 &
1'
1-
b11 1
b11 2
13
15
b0000110 6
b0101011 7
b00010 ;
#830000000
0!
0-
#840000000
1!
1-
15
b0000110 6
b0101011 7
b00011 ;
#850000000
0!
0-
#860000000
1!
1-
15
b0000110 6
b0101011 7
b00100 ;
#870000000
0!
0-
#880000000
1!
1-
15
b0000110 6
b0101011 7
b00101 ;
#890000000
0!
0-
#900000000
1!
1-
15
b0000110 6
b0101011 7
b00110 ;
#910000000
0!
0-
#920000000
1!
1-
15
b0000110 6
b0101011 7
b00111 ;
#930000000
0!
0-
#940000000
1!
1-
15
b0000110 6
b0101011 7
b01000 ;
#950000000
0!
0-
#960000000
1!
1-
15
b0000110 6
b0101011 7
b01001 ;
#970000000
0!
0-
#980000000
1!
1-
15
b0000110 6
b0101011 7
b01010 ;
#990000000
0!
0)
0-
05
#1000000000
1!
1)
b0000110 +
1-
15
b0000110 6
b0000110 7
b01011 ;
#1010000000
0!
0)
0-
05
#1020000000
1!
1)
1-
15
b0000110 6
b0000110 7
b01100 ;
#1030000000
0!
0)
0-
05
#1040000000
1!
1)
1-
15
b0000110 6
b0000110 7
b01101 ;
#1050000000
0!
0-
#1060000000
1!
b01 %
b10 &
0)
b1111111 *
b1111111 +
1-
b01 1
b10 2
05
b1111111 6
b1111111 7
b00000 ;
#1070000000
0!
0-
#1080000000
1!
1)
b0000110 *
b0101011 +
1-
15
b0000110 6
b0101011 7
b00001 ;
#1090000000
0!
0-
#1100000000
1!
1-
15
b0000110 6
b0101011 7
b00010 ;
#1110000000
0!
0-
#1120000000
1!
1-
15
b0000110 6
b0101011 7
b00011 ;
#1130000000
0!
0-
#1140000000
1!
1-
15
b0000110 6
b0101011 7
b00100 ;
#1150000000
0!
0-
#1160000000
1!
1-
15
b0000110 6
b0101011 7
b00101 ;
#1170000000
0!
0-
#1180000000
1!
1-
15
b0000110 6
b0101011 7
b00110 ;
#1190000000
0!
0-
#1200000000
1!
1-
15
b0000110 6
b0101011 7
b00111 ;
#1210000000
0!
0-
#1220000000
1!
1-
15
b0000110 6
b0101011 7
b01000 ;
#1230000000
0!
0-
#1240000000
1!
1-
15
b0000110 6
b0101011 7
b01001 ;
#1250000000
0!
0-
#1260000000
1!
1-
15
b0000110 6
b0101011 7
b01010 ;
#1270000000
0!
0-
#1280000000
1!
1(
0)
b0000010 *
b1000000 +
1-
14
05
b0000010 6
b1000000 7
b00000 ;
#1290000000
0!
0(
0-
04
#1300000000
1!
0#
1$
b00 %
b00 &
0'
1(
1-
0/
10
b00 1
b00 2
03
14
b0000010 6
b1000000 7
b0000010 <
#1310000000
0!
0-
#1320000000
1!
0(
b1111111 *
b1111111 +
b0000010 ,
1-
04
b1111111 6
b1111111 7
b0000010 8
#1330000000
0!
0-
#1340000000
1!
0$
1-
00
#1350000000
0!
0-
#1360000000
1!
1-
#1370000000
0!
0-
#1380000000
1!
1-
#1390000000
0!
0-
#1400000000
1!
1-
#1410000000
0!
0-
#1420000000
1!
1-
#1430000000
0!
0-
#1440000000
1!
1-
#1450000000
0!
0-
#1460000000
1!
1-
#1470000000
0!
0-
#1480000000
1!
1-
#1490000000
0!
0-
#1500000000
1!
1-
#1510000000
0!
0-
#1520000000
1!
1-
#1530000000
0!
0-
#1540000000
1!
1-
#1550000000
0!
0-
#1560000000
1!
1-
#1570000000
0!
0-
#1580000000
1!
1-
#1590000000
0!
0-
#1600000000
1!
1-
#1610000000
0!
0-
#1620000000
1!
1-
#1630000000
0!
0-
#1640000000
1!
1-
#1650000000
0!
0-
#1660000000
1!
1-
#1670000000
0!
0-
#1680000000
1!
1-
#1690000000
0!
0-
#1700000000
1!
1-
#1710000000
0!
0-
#1720000000
1!
1-
#1730000000
0!
0-
#1740000000
1!
1#
1-
1/
#1750000000
0!
0-
#1760000000
1!
1)
b0000110 *
b0101011 +
1-
15
b0000110 6
b0101011 7
b00001 ;
#1770000000
0!
0-
#1780000000
1!
b01 %
b10 &
1'
1-
b01 1
b10 2
13
15
b0000110 6
b0101011 7
b00010 ;
#1790000000
0!
0-
#1800000000
1!
1-
15
b0000110 6
b0101011 7
b00011 ;
#1810000000
0!
0-
#1820000000
1!
1-
15
b0000110 6
b0101011 7
b00100 ;
#1830000000
0!
0-
#1840000000
1!
1-
15
b0000110 6
b0101011 7
b00101 ;
#1850000000
0!
0-
#1860000000
1!
1-
15
b0000110 6
b0101011 7
b00110 ;
#1870000000
0!
0-
#1880000000
1!
1-
15
b0000110 6
b0101011 7
b00111 ;
#1890000000
0!
0-
#1900000000
1!
1-
15
b0000110 6
b0101011 7
b01000 ;
#1910000000
0!
0-
#1920000000
1!
1-
15
b0000110 6
b0101011 7
b01001 ;
#1930000000
0!
0-
#1940000000
1!
1-
15
b0000110 6
b0101011 7
b01010 ;
#1950000000
0!
0-
#1960000000
1!
1(
0)
b0000010 *
b1000000 +
1-
14
05
b0000010 6
b1000000 7
b00000 ;
#1970000000
0!
0(
0-
04
#1980000000
1!
1$
1(
1-
10
14
b0000010 6
b1000000 7
b0000011 <
#1990000000
0!
0-
#2000000000
1!
0(
1)
b0100100 *
b0001100 +
b0000011 ,
1-
04
15
b0100100 6
b0001100 7
b0000011 8
#2010000000
0!
0)
0-
05
#2020000000
1!
1)
1-
15
b0100100 6
b0001100 7
#2030000000
0!
0)
0-
05
#2040000000
1!
0$
1)
1-
00
15
b0100100 6
b0001100 7
#2050000000
0!
0-
#2060000000
1!
0)
b1111111 *
b1111111 +
1-
05
b1111111 6
b1111111 7
#2070000000
0!
0-
#2080000000
1!
1)
b0000110 *
b0101011 +
1-
15
b0000110 6
b0101011 7
b00001 ;
#2090000000
0!
0-
#2100000000
1!
1-
15
b0000110 6
b0101011 7
b00010 ;
#2110000000
0!
0-
#2120000000
1!
1-
15
b0000110 6
b0101011 7
b00011 ;
#2130000000
0!
0-
#2140000000
1!
1-
15
b0000110 6
b0101011 7
b00100 ;
#2150000000
0!
0-
#2160000000
1!
1-
15
b0000110 6
b0101011 7
b00101 ;
#2170000000
0!
0-
#2180000000
1!
1-
15
b0000110 6
b0101011 7
b00110 ;
#2190000000
0!
0-
#2200000000
1!
1-
15
b0000110 6
b0101011 7
b00111 ;
#2210000000
0!
0-
#2220000000
1!
1-
15
b0000110 6
b0101011 7
b01000 ;
#2230000000
0!
0-
#2240000000
1!
1-
15
b0000110 6
b0101011 7
b01001 ;
#2250000000
0!
0-
#2260000000
1!
1-
15
b0000110 6
b0101011 7
b01010 ;
#2270000000
0!
0-
#2280000000
1!
1(
0)
b0000010 *
b1000000 +
1-
14
05
b0000010 6
b1000000 7
b00000 ;
#2290000000
0!
0(
0-
04
#2300000000
1!
1(
1-
14
b0000010 6
b1000000 7
#2310000000
0!
0(
0-
04
#2320000000
1!
1(
1-
14
b0000010 6
b1000000 7
#2330000000
0!
0(
0-
04
#2340000000
1!
0#
1$
b00 %
b00 &
0'
1(
1-
0/
10
b00 1
b00 2
03
14
b0000010 6
b1000000 7
b0000100 <
#2350000000
0!
0-
#2360000000
1!
0(
b1111111 *
b1111111 +
b0000100 ,
1-
04
b1111111 6
b1111111 7
b0000100 8
#2370000000
0!
0-
#2380000000
1!
0$
1-
00
#2390000000
0!
0-
#2400000000
1!
1-
#2410000000
0!
0-
#2420000000
1!
1-
#2430000000
0!
0-
#2440000000
1!
1-
#2450000000
0!
0-
#2460000000
1!
1-
#2470000000
0!
0-
#2480000000
1!
1-
#2490000000
0!
0-
#2500000000
1!
1-
#2510000000
0!
0-
#2520000000
1!
1-
#2530000000
0!
0-
#2540000000
1!
1-
#2550000000
0!
0-
#2560000000
1!
1-
#2570000000
0!
0-
#2580000000
1!
1-
#2590000000
0!
0-
#2600000000
1!
1-
#2610000000
0!
0-
#2620000000
1!
1-
#2630000000
0!
0-
#2640000000
1!
1-
#2650000000
0!
0-
#2660000000
1!
1-
#2670000000
0!
0-
#2680000000
1!
1-
#2690000000
0!
0-
#2700000000
1!
1-
#2710000000
0!
0-
#2720000000
1!
1-
#2730000000
0!
0-
#2740000000
1!
1-
#2750000000
0!
0-
#2760000000
1!
1-
#2770000000
0!
0-
#2780000000
1!
1#
1-
1/
#2790000000
0!
0-
#2800000000
1!
1)
b0000110 *
b0101011 +
1-
15
b0000110 6
b0101011 7
b00001 ;
#2810000000
0!
0-
#2820000000
1!
1-
15
b0000110 6
b0101011 7
b00010 ;
#2830000000
0!
0-
#2840000000
1!
1-
15
b0000110 6
b0101011 7
b00011 ;
#2850000000
0!
0-
#2860000000
1!
1-
15
b0000110 6
b0101011 7
b00100 ;
#2870000000
0!
0-
#2880000000
1!
1-
15
b0000110 6
b0101011 7
b00101 ;
#2890000000
0!
0-
#2900000000
1!
1-
15
b0000110 6
b0101011 7
b00110 ;
#2910000000
0!
0-
#2920000000
1!
1-
15
b0000110 6
b0101011 7
b00111 ;
#2930000000
0!
0-
#2940000000
1!
1-
15
b0000110 6
b0101011 7
b01000 ;
#2950000000
0!
0-
#2960000000
1!
1-
15
b0000110 6
b0101011 7
b01001 ;
#2970000000
0!
0-
#2980000000
1!
1-
15
b0000110 6
b0101011 7
b01010 ;
#2990000000
0!
0-
#3000000000
1!
0)
b1110000 *
b1100010 +
1-
05
b1110000 6
b1100010 7
b01011 ;
#3010000000
0!
0-
#3020000000
1!
1-
b1110000 6
b1100010 7
b01100 ;
#3030000000
0!
0-
#3040000000
1!
1-
b1110000 6
b1100010 7
b01101 ;
#3050000000
0!
0-
#3060000000
1!
1-
b1110000 6
b1100010 7
b01110 ;
#3070000000
0!
0-
#3080000000
1!
1-
b1110000 6
b1100010 7
b01111 ;
#3090000000
0!
0-
#3100000000
1!
1-
b1110000 6
b1100010 7
b10000 ;
#3110000000
0!
0-
#3120000000
1!
1-
b1110000 6
b1100010 7
b10001 ;
#3130000000
0!
0-
#3140000000
1!
1-
b1110000 6
b1100010 7
b10010 ;
#3150000000
0!
0-
#3160000000
1!
1-
b1110000 6
b1100010 7
b10011 ;
#3170000000
0!
0-
#3180000000
1!
1-
b1110000 6
b1100010 7
b10100 ;
#3190000000
0!
0-
#3200000000
1!
1-
b1110000 6
b1100010 7
b10101 ;
#3210000000
0!
0-
#3220000000
1!
b1111111 *
b1111111 +
1-
b1111111 6
b1111111 7
b00000 ;
#3230000000
0!
0-
#3240000000
1!
1)
b0000110 *
b0101011 +
1-
15
b0000110 6
b0101011 7
b00001 ;
#3250000000
0!
0-
#3260000000
1!
1-
15
b0000110 6
b0101011 7
b00010 ;
#3270000000
0!
0-
#3280000000
1!
1-
15
b0000110 6
b0101011 7
b00011 ;
#3290000000
0!
0-
#3300000000
1!
1-
15
b0000110 6
b0101011 7
b00100 ;
#3310000000
0!
0-
#3320000000
1!
1-
15
b0000110 6
b0101011 7
b00101 ;
#3330000000
0!
0-
#3340000000
1!
1-
15
b0000110 6
b0101011 7
b00110 ;
#3350000000
0!
0-
#3360000000
1!
1-
15
b0000110 6
b0101011 7
b00111 ;
#3370000000
0!
0-
#3380000000
1!
b01 %
b10 &
1'
1-
b01 1
b10 2
13
15
b0000110 6
b0101011 7
b01000 ;
#3390000000
0!
0-
#3400000000
1!
1-
15
b0000110 6
b0101011 7
b01001 ;
#3410000000
0!
0-
#3420000000
1!
1-
15
b0000110 6
b0101011 7
b01010 ;
#3430000000
0!
0-
#3440000000
1!
1(
0)
b0000010 *
b1000000 +
1-
14
05
b0000010 6
b1000000 7
b00000 ;
#3450000000
0!
0(
0-
04
#3460000000
1!
1(
1-
14
b0000010 6
b1000000 7
#3470000000
0!
0(
0-
04
#3480000000
1!
1(
1-
14
b0000010 6
b1000000 7
#3490000000
0!
0(
0-
04
#3500000000
1!
1(
1-
14
b0000010 6
b1000000 7
#3510000000
0!
0(
0-
04
#3520000000
1!
1(
1-
14
b0000010 6
b1000000 7
#3530000000
0!
0(
0-
04
#3540000000
1!
1(
1-
14
b0000010 6
b1000000 7
#3550000000
0!
0(
0-
04
#3560000000
1!
1(
1-
14
b0000010 6
b1000000 7
#3570000000
0!
0(
0-
04
#3580000000
1!
0#
b00 %
b00 &
0'
1(
1-
0/
b00 1
b00 2
03
14
b0000010 6
b1000000 7
#3590000000
0!
0(
0-
04
#3600000000
1!
1(
1-
14
b0000010 6
b1000000 7
#3610000000
0!
0(
0-
04
#3620000000
1!
1$
1(
1-
10
14
b0000010 6
b1000000 7
b0000101 <
#3630000000
0!
0-
#3640000000
1!
0(
b1111111 *
b1111111 +
b0000101 ,
1-
04
b1111111 6
b1111111 7
b0000101 8
#3650000000
0!
0-
#3660000000
1!
0$
1-
00
#3670000000
0!
0-
#3680000000
1!
1-
#3690000000
0!
0-
#3700000000
1!
1-
#3710000000
0!
0-
#3720000000
1!
1-
#3730000000
0!
0-
#3740000000
1!
1-
#3750000000
0!
0-
#3760000000
1!
1-
#3770000000
0!
0-
#3780000000
1!
1-
#3790000000
0!
0-
#3800000000
1!
1-
#3810000000
0!
0-
#3820000000
1!
1-
#3830000000
0!
0-
#3840000000
1!
1-
#3850000000
0!
0-
#3860000000
1!
1-
#3870000000
0!
0-
#3880000000
1!
1-
#3890000000
0!
0-
#3900000000
1!
1-
#3910000000
0!
0-
#3920000000
1!
1-
#3930000000
0!
0-
#3940000000
1!
1-
#3950000000
0!
0-
#3960000000
1!
1-
#3970000000
0!
0-
#3980000000
1!
1-
#3990000000
0!
0-
#4000000000
1!
1-
#4010000000
0!
0-
#4020000000
1!
1-
#4030000000
0!
0-
#4040000000
1!
1-
#4050000000
0!
0-
#4060000000
1!
1#
1-
1/
#4070000000
0!
0-
#4080000000
1!
1)
b0000110 *
b0101011 +
1-
15
b0000110 6
b0101011 7
b00001 ;
#4090000000
0!
0-
#4100000000
1!
b01 %
b10 &
1'
1-
b01 1
b10 2
13
15
b0000110 6
b0101011 7
b00010 ;
#4110000000
0!
0-
#4120000000
1!
1-
15
b0000110 6
b0101011 7
b00011 ;
#4130000000
0!
0-
#4140000000
1!
1-
15
b0000110 6
b0101011 7
b00100 ;
#4150000000
0!
0-
#4160000000
1!
1-
15
b0000110 6
b0101011 7
b00101 ;
#4170000000
0!
0-
#4180000000
1!
1-
15
b0000110 6
b0101011 7
b00110 ;
#4190000000
0!
0-
#4200000000
1!
1-
15
b0000110 6
b0101011 7
b00111 ;
#4210000000
0!
0-
#4220000000
1!
1-
15
b0000110 6
b0101011 7
b01000 ;
#4230000000
0!
0-
#4240000000
1!
1-
15
b0000110 6
b0101011 7
b01001 ;
#4250000000
0!
0-
#4260000000
1!
1-
15
b0000110 6
b0101011 7
b01010 ;
#4270000000
0!
0-
#4280000000
1!
1(
0)
b0000010 *
b1000000 +
1-
14
05
b0000010 6
b1000000 7
b00000 ;
#4290000000
0!
0(
0-
04
#4300000000
1!
1(
1-
14
b0000010 6
b1000000 7
#4310000000
0!
0(
0-
04
#4320000000
1!
1(
1-
14
b0000010 6
b1000000 7
#4330000000
0!
0(
0-
04
#4340000000
1!
1(
1-
14
b0000010 6
b1000000 7
#4350000000
0!
0(
0-
04
#4360000000
1!
0"
0#
b1111111 *
b1111111 +
b0000000 ,
1-
0.
0/
b1111111 6
b1111111 7
b0000000 8
b0000000 <
