Parking Controller/case1.vcd
$date
  Thu Nov 20 15:20:08 2025
$end
$version
  GHDL v0
$end
$timescale
  1 fs
$end
$scope module standard $end
$upscope $end
$scope module textio $end
$upscope $end
$scope module std_logic_1164 $end
$upscope $end
$scope module numeric_std $end
$upscope $end
$scope module env $end
$upscope $end
$scope module parking_tb_case1 $end
$var reg 1 ! clk $end
$var reg 1 " nrst $end
$var reg 1 # payment_done $end
$var reg 1 $ sensor_front_gin1 $end
$var reg 1 % sensor_back_gin1 $end
$var reg 1 & sensor_front_gin2 $end
$var reg 1 ' sensor_back_gin2 $end
$var reg 1 ( sensor_front_gout1 $end
$var reg 1 ) sensor_back_gout1 $end
$var reg 1 * sensor_front_gout2 $end
$var reg 1 + sensor_back_gout2 $end
$var reg 1 , payment_request $end
$var reg 1 - payment_accepted $end
$var reg 1 . barrier_gin1 $end
$var reg 1 / barrier_gin2 $end
$var reg 1 0 barrier_gout1 $end
$var reg 1 1 barrier_gout2 $end
$var reg 1 2 green_light $end
$var reg 1 3 red_light $end
$var reg 7 4 display[6:0] $end
$scope module dut $end
$var reg 1 5 clk $end
$var reg 1 6 nrst $end
$var reg 1 7 sensor_a_gin1 $end
$var reg 1 8 sensor_b_gin1 $end
$var reg 1 9 sensor_a_gin2 $end
$var reg 1 : sensor_b_gin2 $end
$var reg 1 ; sensor_a_gout1 $end
$var reg 1 < sensor_b_gout1 $end
$var reg 1 = sensor_a_gout2 $end
$var reg 1 > sensor_b_gout2 $end
$var reg 1 ? payment_done $end
$var reg 1 @ payment_accepted $end
$var reg 1 A payment_request $end
$var reg 1 B barrier_gin1 $end
$var reg 1 C barrier_gin2 $end
$var reg 1 D barrier_gout1 $end
$var reg 1 E barrier_gout2 $end
$var reg 1 F green_light $end
$var reg 1 G red_light $end
$var reg 7 H display[6:0] $end
$var integer 32 I car_count $end
$var reg 1 J car_detected_gin1 $end
$var reg 1 K car_detected_gin2 $end
$var reg 1 L car_entered_gin1 $end
$var reg 1 M car_entered_gin2 $end
$var reg 1 N car_exited_gout1 $end
$var reg 1 O car_exited_gout2 $end
$var reg 1 P enable_gin1 $end
$var reg 1 Q enable_gin2 $end
$var reg 1 R payment_requested_gin1 $end
$var reg 1 S payment_requested_gin2 $end
$var reg 1 T payment_accepted_gout1 $end
$var reg 1 U payment_accepted_gout2 $end
$comment current_state is not handled $end
$scope module gin1 $end
$var reg 1 V clk $end
$var reg 1 W nrst $end
$var reg 1 X sensor_a_gin $end
$var reg 1 Y sensor_b_gin $end
$var reg 1 Z enable $end
$var reg 1 [ car_detected $end
$var reg 1 \ car_entered $end
$var reg 1 ] barrier $end
$comment current_state is not handled $end
$upscope $end
$scope module gin2 $end
$var reg 1 ^ clk $end
$var reg 1 _ nrst $end
$var reg 1 ` sensor_a_gin $end
$var reg 1 a sensor_b_gin $end
$var reg 1 b enable $end
$var reg 1 c car_detected $end
$var reg 1 d car_entered $end
$var reg 1 e barrier $end
$comment current_state is not handled $end
$upscope $end
$scope module gout1 $end
$var reg 1 f clk $end
$var reg 1 g nrst $end
$var reg 1 h sensor_a_gout $end
$var reg 1 i sensor_b_gout $end
$var reg 1 j payment_done $end
$var reg 1 k payment_request $end
$var reg 1 l payment_accepted $end
$var reg 1 m barrier $end
$var reg 1 n car_exited $end
$comment current_state is not handled $end
$upscope $end
$scope module gout2 $end
$var reg 1 o clk $end
$var reg 1 p nrst $end
$var reg 1 q sensor_a_gout $end
$var reg 1 r sensor_b_gout $end
$var reg 1 s payment_done $end
$var reg 1 t payment_request $end
$var reg 1 u payment_accepted $end
$var reg 1 v barrier $end
$var reg 1 w car_exited $end
$comment current_state is not handled $end
$upscope $end
$upscope $end
$upscope $end
$enddefinitions $end
#0
0!
0"
0#
0$
0%
0&
0'
0(
0)
0*
0+
0,
0-
0.
0/
00
01
12
03
b0001111 4
05
06
07
08
09
0:
0;
0<
0=
0>
0?
0@
0A
0B
0C
0D
0E
1F
0G
b0001111 H
b0 I
0J
0K
UL
UM
UN
UO
0P
0Q
0R
0S
0T
0U
0V
0W
0X
0Y
0Z
0[
U\
0]
0^
0_
0`
0a
0b
0c
Ud
0e
0f
0g
0h
0i
0j
0k
0l
0m
Un
0o
0p
0q
0r
0s
0t
0u
0v
Uw
#5000000
1!
15
1V
1^
1f
1o
#10000000
0!
05
0V
0^
0f
0o
#15000000
1!
15
1V
1^
1f
1o
#20000000
0!
05
0V
0^
0f
0o
#25000000
1!
15
1V
1^
1f
1o
#30000000
0!
05
0V
0^
0f
0o
#35000000
1!
15
1V
1^
1f
1o
#40000000
0!
05
0V
0^
0f
0o
#45000000
1!
15
1V
1^
1f
1o
#50000000
0!
05
0V
0^
0f
0o
#55000000
1!
15
1V
1^
1f
1o
#60000000
0!
05
0V
0^
0f
0o
#65000000
1!
15
1V
1^
1f
1o
#70000000
0!
05
0V
0^
0f
0o
#75000000
1!
15
1V
1^
1f
1o
#80000000
0!
05
0V
0^
0f
0o
#85000000
1!
15
1V
1^
1f
1o
#90000000
0!
05
0V
0^
0f
0o
#95000000
1!
15
1V
1^
1f
1o
#100000000
0!
05
0V
0^
0f
0o
#105000000
1!
15
1V
1^
1f
1o
#110000000
0!
05
0V
0^
0f
0o
#115000000
1!
15
1V
1^
1f
1o
#120000000
0!
05
0V
0^
0f
0o
#125000000
1!
15
1V
1^
1f
1o
#130000000
0!
05
0V
0^
0f
0o
#135000000
1!
15
1V
1^
1f
1o
#140000000
0!
05
0V
0^
0f
0o
#145000000
1!
15
1V
1^
1f
1o
#150000000
0!
05
0V
0^
0f
0o
#155000000
1!
15
1V
1^
1f
1o
#160000000
0!
05
0V
0^
0f
0o
#165000000
1!
15
1V
1^
1f
1o
#170000000
0!
05
0V
0^
0f
0o
#175000000
1!
15
1V
1^
1f
1o
#180000000
0!
05
0V
0^
0f
0o
#185000000
1!
15
1V
1^
1f
1o
#190000000
0!
05
0V
0^
0f
0o
#195000000
1!
15
1V
1^
1f
1o
#200000000
0!
1"
05
16
0V
1W
0^
1_
0f
1g
0o
1p
#205000000
1!
15
0L
0M
0N
0O
1V
0\
1^
0d
1f
0n
1o
0w
#210000000
0!
05
0V
0^
0f
0o
#215000000
1!
15
1V
1^
1f
1o
#220000000
0!
05
0V
0^
0f
0o
#225000000
1!
15
1V
1^
1f
1o
#230000000
0!
05
0V
0^
0f
0o
#235000000
1!
15
1V
1^
1f
1o
#240000000
0!
05
0V
0^
0f
0o
#245000000
1!
15
1V
1^
1f
1o
#250000000
0!
05
0V
0^
0f
0o
#255000000
1!
15
1V
1^
1f
1o
#260000000
0!
05
0V
0^
0f
0o
#265000000
1!
15
1V
1^
1f
1o
#270000000
0!
05
0V
0^
0f
0o
#275000000
1!
15
1V
1^
1f
1o
#280000000
0!
05
0V
0^
0f
0o
#285000000
1!
15
1V
1^
1f
1o
#290000000
0!
05
0V
0^
0f
0o
#295000000
1!
15
1V
1^
1f
1o
#300000000
0!
05
0V
0^
0f
0o
#305000000
1!
15
1V
1^
1f
1o
#310000000
0!
05
0V
0^
0f
0o
#315000000
1!
15
1V
1^
1f
1o
#320000000
0!
05
0V
0^
0f
0o
#325000000
1!
15
1V
1^
1f
1o
#330000000
0!
05
0V
0^
0f
0o
#335000000
1!
15
1V
1^
1f
1o
#340000000
0!
05
0V
0^
0f
0o
#345000000
1!
15
1V
1^
1f
1o
#350000000
0!
05
0V
0^
0f
0o
#355000000
1!
15
1V
1^
1f
1o
#360000000
0!
05
0V
0^
0f
0o
#365000000
1!
15
1V
1^
1f
1o
#370000000
0!
05
0V
0^
0f
0o
#375000000
1!
15
1V
1^
1f
1o
#380000000
0!
05
0V
0^
0f
0o
#385000000
1!
15
1V
1^
1f
1o
#390000000
0!
05
0V
0^
0f
0o
#395000000
1!
15
1V
1^
1f
1o
#400000000
0!
1$
05
17
0V
1X
0^
0f
0o
#405000000
1!
15
1J
1V
1[
1^
1f
1o
#410000000
0!
05
0V
0^
0f
0o
#415000000
1!
15
1V
1^
1f
1o
#420000000
0!
05
0V
0^
0f
0o
#425000000
1!
15
1P
1V
1Z
1^
1f
1o
#430000000
0!
05
0V
0^
0f
0o
#435000000
1!
1.
15
1B
0J
0P
1V
0Z
0[
1]
1^
1f
1o
#440000000
0!
05
0V
0^
0f
0o
#445000000
1!
15
1P
1V
1Z
1^
1f
1o
#450000000
0!
05
0V
0^
0f
0o
#455000000
1!
15
0P
1V
0Z
1^
1f
1o
